Demographics with tidycensus
…
3 Testing functionality

3.1 Focus on PA

pa <- get_acs(geography = "county", 
              variables = c(medincome = "B19013_001"), 
              state = "PA")

## Getting data from the 2013-2017 5-year ACS

## Using FIPS code '42' for state 'PA'

pa

## # A tibble: 67 x 5
##    GEOID NAME                           variable  estimate   moe
##    <chr> <chr>                          <chr>        <dbl> <dbl>
##  1 42001 Adams County, Pennsylvania     medincome    62661  1660
##  2 42003 Allegheny County, Pennsylvania medincome    56333   474
##  3 42005 Armstrong County, Pennsylvania medincome    47527  1677
##  4 42007 Beaver County, Pennsylvania    medincome    53981  1083
##  5 42009 Bedford County, Pennsylvania   medincome    48703  1665
##  6 42011 Berks County, Pennsylvania     medincome    59580   931
##  7 42013 Blair County, Pennsylvania     medincome    45664  1034
##  8 42015 Bradford County, Pennsylvania  medincome    50900  1451
##  9 42017 Bucks County, Pennsylvania     medincome    82031  1010
## 10 42019 Butler County, Pennsylvania    medincome    66037  1398
## #  with 57 more rows
…
