PLAY collection site demographics
…
county.pop.percent %>%
  group_by(Site.code, State, County) %>%
  summarize(tot.p = sum(pop.percent))

## # A tibble: 45 x 4
## # Groups:   Site.code, State [?]
##    Site.code State County       tot.p
##    <chr>     <chr> <chr>        <int>
##  1 BU        MA    Suffolk         96
##  2 CHI       IL    Cook            99
##  3 CHOP      NJ    Camden          98
##  4 CHOP      NJ    Gloucester      98
##  5 CHOP      PA    Bucks           99
##  6 CHOP      PA    Chester         98
##  7 CHOP      PA    Delaware        97
##  8 CHOP      PA    Montgomery      98
##  9 CHOP      PA    Philadelphia    97
## 10 COR       NY    Tompkins        97
## # ... with 35 more rows
…
